Designator,Footprint,Quantity,Value,LCSC Part #
"C1, C2, C4, C5, C8, C11, C18, C19, C20, C29, C33, C35, C39, C41, C44, C50, C51, C55, C57, C60, ",Capacitor_SMD:C_0402_1005Metric,20,100nf,C1525
"C3, ",Capacitor_SMD:CP_Elec_4x5.4,1,1uF,C401775
"C6, C14, ",Capacitor_SMD:C_0603_1608Metric,2,10uF,C19702
"C7, C17, C42",Capacitor_SMD:C_0402_1005Metric,3,10nf,C15195
"C13, C52, ",Capacitor_SMD:C_0402_1005Metric,2,1uf,C52923
"C15, C16, ",Capacitor_SMD:C_0402_1005Metric,2,13pf,C183717
"C21, ",Capacitor_SMD:C_0603_1608Metric,1,4.7uf,C19666
"C22, ",Capacitor_SMD:C_0402_1005Metric,1,0.1uf,C1525
"C26, C27, C28, C34, C36, C45, ",Capacitor_SMD:C_0402_1005Metric,6,33pf,C1562
"C32, ",Capacitor_SMD:C_0402_1005Metric,1,220nf,C16772
"C37, C38, ",Capacitor_SMD:C_0402_1005Metric,2,10pf,C32949
"C40, ",Capacitor_SMD:C_0805_2012Metric,1,1uF,C28323
"C43, ",Capacitor_SMD:C_0805_2012Metric,1,4.7uF,C1779
"C46, ",Capacitor_SMD:C_0402_1005Metric,1,47nf,C387934
"C47, ",Capacitor_SMD:C_0402_1005Metric,1,150pf,C1527
"C48, ",Capacitor_SMD:C_0402_1005Metric,1,100pf,C1546
"C49, ",Capacitor_SMD:C_0402_1005Metric,1,68pf,C14441
"C53, ",Capacitor_SMD:C_0402_1005Metric,1,2.2uf,C363526
"C54, C56, C58, C59, ",Capacitor_SMD:C_0402_1005Metric,4,4.7uf,C711080
"D3, D5, ",WS05DP:DIO_ESDA13P70-1U1M,2,WS05DP,C2984674
"D4, ",Package_TO_SOT_SMD:SOT-23-6,1,ESDA6V1-5SC6,C2827672
"D6, D7, D8, D9, D10, ",SOD-923:SOD-923,5,ESD9X3,C3021105
"FB1, FB2, FB3, FB4, ",Inductor_SMD:L_0805_2012Metric,4,100 @ 100MHz,C1015
"HSE1, ",Crystal:Crystal_SMD_3225-4Pin_3.2x2.5mm,1,16MHz,C2905346
"J2, J3, ",Connector_USB:USB_Micro-B_Molex-105017-0001,2,USB_B_Micro,C505111
"J6, ",molex_micro_sim:MOLEX_0786463001,1,786463001,C194938
"J7, ",ant_cont_conufl001:LINX_CONUFL001-SMD-T,1,SMA_MAIN,C598199
"J8, ",ant_cont_conufl001:LINX_CONUFL001-SMD-T,1,SMA_GNSS,C598199
"LED2, ",LED_SMD:LED_0603_1608Metric,1,Red,C72038
"LED3, ",LED_SMD:LED_0603_1608Metric,1,Blue,C72041
"Q2, Q3, Q5, Q6, Q7, Q8, ",Package_TO_SOT_SMD:SOT-416,6,DTC043ZEB,C96459
"Q4, ",SOT-23(TO-236),1,SI2301-ZE ,C5261052
"R2, ",Resistor_SMD:R_0402_1005Metric,1,220,C25091
"R3, R7, R13, R22, R30, R31, R32, ",Resistor_SMD:R_0402_1005Metric,7,10K,C25744
"R4, R19, R33, R34, ",Resistor_SMD:R_0402_1005Metric,4,100,C881021
"R5, R6, ",Resistor_SMD:R_0603_1608Metric,2,1k,C22764
"R8, R9, ",Resistor_SMD:R_0402_1005Metric,2,4.7K,C25900
"R10, R11, ",Resistor_SMD:R_0603_1608Metric,2,100,C327828
"R12, R18, R1, R20,",Resistor_SMD:R_0402_1005Metric,4,10k,C25744
"R14, R15, R29, ",Resistor_SMD:R_0402_1005Metric,3,0k,C17168
"R16, R17, ",Resistor_SMD:R_0805_2012Metric,2,0k,C17477
"R21, ",Resistor_SMD:R_0402_1005Metric,1,15K,C25756
"R23, ",Resistor_SMD:R_0402_1005Metric,1,120K,C25750
"R24, R25, ",Resistor_SMD:R_0402_1005Metric,2,51K,C25794
"R26, ",Resistor_SMD:R_0402_1005Metric,1,39K 1%,C25783
"R27, ",Resistor_SMD:R_0402_1005Metric,1,75K 1%,C25798
"R28, ",Resistor_SMD:R_0402_1005Metric,1,100K,C25741
"U1, U4, ",Package_TO_SOT_SMD:SOT-23-6,2,USBLC6-2SC6,C7519
"U2, ",Package_QFP:LQFP-64_10x10mm_P0.5mm,1,STM32L053R8T6,C79207
"U5, ",M24C64-RMN6TP:SOIC127P600X175-8N,1,M24C64-RMN6TP,C79988
"U6, ",PQFN50P250X300X97-14N,1,ICM-20600,C124140
"U7, ",Package_SO:SSOP-28_5.3x10.2mm_P0.65mm,1,FT232RL,C8690
"U8, ",BG95:XCVR_BG95M3LA-64-SGNS,1,BG95M3LA-64-SGNS,C2960993
"U10, ",Package_SO:TSSOP-20_4.4x6.5mm_P0.65mm,1,TXS0108EPW,C17206
"U11, ",Package_TO_SOT_SMD:SOT-23-5,1,SGM2019,C24330
