Designator,Package,Mid X,Mid Y,Rotation,Side
C1,C_0402_1005Metric,23.4,-28.8,90,top
C2,C_0402_1005Metric,25.936,-26.67,0,top
C3,CP_Elec_4x5.4,81.57,-29.18,0,top
C4,C_0402_1005Metric,37.338,-30.226,-90,top
C5,C_0402_1005Metric,33.6,-42,-90,top
C6,C_0603_1608Metric,82.525,-36.875,180,top
C7,C_0402_1005Metric,4.27,-43.88,0,top
C8,C_0402_1005Metric,36.0908,-10.3266,-90,top
C9,C_0402_1005Metric,48.1,-7.1,0,top
C10,C_0402_1005Metric,47.1,-11.058628,180,top
C11,C_0402_1005Metric,22.15,-36.9,90,top
C12,C_0402_1005Metric,62.51687,-6.544807,0,top
C13,C_0402_1005Metric,21,-37.2,90,top
C14,C_0603_1608Metric,24.638,-41.148,90,top
C15,C_0402_1005Metric,19.6364,-29.7054,0,top
C16,C_0402_1005Metric,19.3062,-35.2172,180,top
C17,C_0402_1005Metric,9.398,-34.137452,180,top
C18,C_0402_1005Metric,19.3,-23.4252,0,top
C19,C_0402_1005Metric,7.77,-20.18,90,top
C20,C_0402_1005Metric,19.1364,-21.8504,-90,top
C21,C_0603_1608Metric,20.5588,-21.317,-90,top
C22,C_0402_1005Metric,8.07,-40.68,180,top
C23,C_0402_1005Metric,64.63231,-6.539043,0,top
C24,C_0402_1005Metric,62.513241,-7.925701,0,top
C25,C_0402_1005Metric,62.525963,-10.919092,0,top
C26,C_0402_1005Metric,66.77,-18.98,0,top
C27,C_0402_1005Metric,69.77,-28.89,-90,top
C28,C_0402_1005Metric,66.27,-20.5,90,top
C29,C_0402_1005Metric,67.87,-28.49,-90,top
C30,CP_Elec_6.3x7.7,71.575,-42.275,-90,top
C31,CP_Elec_6.3x7.7,54.7,-5.2,90,top
C32,C_0402_1005Metric,68.601849,-37.748067,0,top
C33,C_0402_1005Metric,54.8,-10.482905,180,top
C34,C_0402_1005Metric,67.759006,-32.995932,-90,top
C35,C_0402_1005Metric,46.4,-51.1,-90,top
C36,C_0402_1005Metric,54.794195,-11.474057,180,top
C37,C_0402_1005Metric,66.7,-33,-90,top
C38,C_0402_1005Metric,54.8,-12.482905,180,top
C39,C_0402_1005Metric,36.4,-51.7,180,top
C40,C_0805_2012Metric,11.8,-11.2,90,top
C41,C_0402_1005Metric,13.5,-13.2,-90,top
C42,C_0402_1005Metric,38.9,-29.18,180,top
C43,C_0805_2012Metric,21,-12,-90,top
C44,C_0402_1005Metric,22.7526,-13,-90,top
C45,C_0402_1005Metric,23.8956,-13,-90,top
C46,C_0402_1005Metric,68.6,-36.7,0,top
C47,C_0402_1005Metric,68.601849,-35.648067,0,top
C48,C_0402_1005Metric,69.859006,-32.995932,-90,top
C49,C_0402_1005Metric,68.810698,-33,-90,top
C50,C_0402_1005Metric,26.4,-41.9,180,top
C51,C_0402_1005Metric,25.5,-46,0,top
C52,C_0402_1005Metric,8.07,-42.68,0,top
C53,C_0402_1005Metric,8.07,-43.78,0,top
C54,C_0402_1005Metric,32.57,-18.38,-90,top
C55,C_0402_1005Metric,31.47,-18.38,90,top
C56,C_0402_1005Metric,6.67,-20.18,-90,top
C57,C_0402_1005Metric,32.87,-15.58,180,top
C58,C_0402_1005Metric,32.87,-14.58,0,top
C59,C_0402_1005Metric,38.07,-13.88,-90,top
C60,C_0402_1005Metric,39.07,-13.88,90,top
D3,DIO_ESDA13P70-1U1M,66.495915,-42.721599,90,top
D4,TSOT-23-6,66.77,-25.78,180,top
D5,DIO_ESDA13P70-1U1M,67.1,-40.1,-90,top
D6,SOD-923,53.15,-41.85,180,top
D7,SOD-923,42.3026,-41.7936,0,top
D8,SOD-923,39.4,-24.95,90,top
D9,SOD-923,44.9,-41.8,180,top
D10,SOD-923,59.8,-41.8,0,top
FB1,L_0805_2012Metric,82.57,-33.28,0,top
FB2,L_0805_2012Metric,18.85,-39.3,-90,top
FB3,L_0805_2012Metric,10,-36,180,top
FB4,L_0805_2012Metric,37.5894,-10.5552,90,top
HSE1,Crystal_SMD_3225-4Pin_3.2x2.5mm,19.5628,-32.4232,-90,top
J1,PinHeader_2x05_P1.27mm_Vertical_SMD,31.425,-49.470017,-90,top
J2,USB_Micro-B_Molex-105017-0001,33.5,-3.875,180,top
J3,USB_Micro-B_Molex-105017-0001,3.7592,-31.546652,-90,top
J4,PinSocket_2x02_P2.54mm_Vertical_SMD,79.825738,-9.019264,180,top
J5,PinSocket_2x08_P2.54mm_Vertical,8,-49.5,90,top
J6,MOLEX_0786463001,77,-20,0,top
J7,LINX_CONUFL001-SMD-T,47.6,-3.39637,0,top
J8,LINX_CONUFL001-SMD-T,62.034408,-3.328877,0,top
J9,TerminalBlock_bornier-2_P5.08mm,81,-45.54,90,top
J10,PinSocket_2x08_P2.54mm_Vertical,8,-2,90,top
LED2,LED_0603_1608Metric,14.5,-43.0875,-90,top
LED3,LED_0603_1608Metric,16.2,-43.075,-90,top
Q2,SOT-416,38.77,-36.28,0,top
Q3,SOT-416,38.77,-27.18,0,top
Q4,SOT-23,26.77,-11.98,0,top
Q5,SOT-416,23.54,-10.2568,-90,top
Q6,SOT-416,38.525591,-41.727416,-90,top
Q7,SOT-416,28,-9.05,180,top
Q8,SOT-416,38.9,-39,0,top
R1,R_0402_1005Metric,61.47,-48.68,-90,top
R2,R_0402_1005Metric,22.25,-33.49,-90,top
R3,R_0402_1005Metric,9,-10,90,top
R4,R_0402_1005Metric,24.76,-44.88,0,top
R5,R_0603_1608Metric,14.5,-39.875,90,top
R6,R_0603_1608Metric,16.2,-39.875,90,top
R7,R_0402_1005Metric,20,-25,90,top
R8,R_0402_1005Metric,23.7,-47.1,0,top
R9,R_0402_1005Metric,35.1,-27.3,90,top
R10,R_0603_1608Metric,12.25,-30,-90,top
R11,R_0603_1608Metric,14,-30,-90,top
R12,R_0402_1005Metric,6,-22.65,0,top
R13,R_0402_1005Metric,23.5,-46,0,top
R14,R_0402_1005Metric,47.6,-8.8,-90,top
R15,R_0402_1005Metric,62.039927,-9.412438,-90,top
R16,R_0805_2012Metric,74.5,-47.1,0,top
R17,R_0805_2012Metric,70.4,-48.8,90,top
R18,R_0402_1005Metric,60.37,-51.38,-90,top
R19,R_0402_1005Metric,2.37,-40.98,180,top
R20,R_0402_1005Metric,60.37,-48.68,-90,top
R21,R_0402_1005Metric,66.27,-22.48,90,top
R22,R_0402_1005Metric,46.775331,-46.347649,0,top
R23,R_0402_1005Metric,46.6,-47.490649,0,top
R24,R_0402_1005Metric,46.775,-52.825,180,top
R25,R_0402_1005Metric,36.37,-52.78,180,top
R26,R_0402_1005Metric,19,-11,90,top
R27,R_0402_1005Metric,18.9746,-13.2098,90,top
R28,R_0402_1005Metric,21.3302,-9.2568,180,top
R29,R_0402_1005Metric,29.27,-11.88,-90,top
R30,R_0402_1005Metric,36.77,-41.727416,90,top
R31,R_0402_1005Metric,26.0442,-8.542,90,top
R32,R_0402_1005Metric,55.8,-41.9,0,top
R33,R_0402_1005Metric,15.07,-46.68,0,top
R34,R_0402_1005Metric,20.97,-42.28,180,top
SW1,SW_Push_1P1T_NO_6x6mm_H9.5mm,3.6914,-11.5748,-90,top
SW3,SW_SPDT_PCM12,2.3988,-21.888,-90,top
U1,SOT-23-6,9.5,-30.247452,-90,top
U2,LQFP-64_10x10mm_P0.5mm,29.8196,-34.1884,0,top
U3,SOT230P700X180-4N,75.2,-33.5,180,top
U4,SOT-23-6,33.5,-10.5298,90,top
U5,SOIC127P600X175-8N,27.1,-20.2,0,top
U6,PQFN50P250X300X97-14N,5.27,-41.78,0,top
U7,SSOP-28_5.3x10.2mm_P0.65mm,13.142,-21.317,0,top
U8,XCVR_BG95M3LA-64-SGNS,52.8546,-26.4414,0,top
U9,SOIC-8_3.9x4.9mm_P1.27mm,36.17,-19.88,90,top
U10,TSSOP-20_4.4x6.5mm_P0.65mm,41.45,-49.3,180,top
U11,SOT-23-5,16.2314,-10.9238,0,top
